{
  "kernel": {
    "name": "Revolution_Kernel-MIX2S",
    "version": "R1-MIX2S-STABLE",
    "link": "https://github.com/Patrontrox/Kernel-Images/releases/download/V1-MIX2S/Revolution_Kernel-20200125-polaris-clang-Stable.zip",
    "changelog_url": "https://gitlab.com/Patrontrox/Revolution_V8/raw/rebase/OTA/changelog",
    "date": "2020-01-25",
    "sha1": "812dfbda6cfeb0393af83de8fb4ea95fe740219e"
  },
  "support": {
    "link": "https://t.me/Revolution_Kernel"
  }
}
